{
  "development": {
    "username": "developer",
    "password": "just_another_week_password_with_a_typo",
    "database": "vehicle_tracker_development",
    "host": "127.0.0.1",
    "dialect": "mysql",
    "operatorsAliases": 0
  },
  "test": {
    "username": "root",
    "password": null,
    "database": "database_test",
    "host": "127.0.0.1",
    "dialect": "mysql"
  },
  "production": {
    "username": "developer",
    "password": "just_another_week_password_with_a_typo",
    "database": "vehicle_tracker_production",
    "host": "127.0.0.1",
    "dialect": "mysql"
  }
}
